…
O pacote possui um dataset com dados de todos os locais de amostragem já
utilizados no PELD. Para uso, basta utilizar `peld_locais`.

Serão retornados 36 ambientes, com as seguintes variáveis:

-   `ambiente_tipo`: Tipo do ambiente
-   `ambiente_nome`: Nome do ambiente
-   `ambiente_codigo`: Codigo do ambiente
-   `coordenadas`: Coordenadas do ambiente, no padrão 00º’00.00”S,
    00º00’00.00”W
-   `desc`: A descrição do ambiente

``` r
peld_locais
#> # A tibble: 36 x 5
#>    ambiente_tipo ambiente_nome            ambiente_codigo coordenada       desc 
#>    <chr>         <chr>                    <chr>           <chr>            <chr>
#>  1 Lagoa Fechada Lagoa do Ventura         LVEN            "22º51'23.7\"S,~ Lago~
#>  2 Lagoa Fechada Lagoa Zé do Paco         LZEP            "22º50'3.72\"S,~ Lago~
#>  3 Lagoa Fechada Lagoa Jacaré             LJAC            "22º47'2.04\"S,~ Lago~
#>  4 Lagoa Fechada Lagoa do Cervo           LCER            "22º46'29.58\"S~ Lago~
#>  5 Lagoa Fechada Lagoa Capivara           LCAP            "22º47'56.52\"S~ Com ~
#>  6 Lagoa Fechada Lagoa Fechada            LFEC            "22º42'37.92\"S~ Lago~
#>  7 Lagoa Fechada Lagoa Pousada das Garças LPGA            "22º42'1.14\"S,~ Lago~
#>  8 Lagoa Fechada Lagoa Traíra             LTRA            "22º44'45.6\"S,~ Pequ~
#>  9 Lagoa Fechada Lagoa do Aurélio         LAUR            "22º41'34.68\"S~ Pequ~
#> 10 Lagoa Fechada Lagoa Pousada            LPOU            "22º44'41.76\"S~ Loca~
#> # ... with 26 more rows
```
